\relax 
\citation{bodenreider2008biomedical,hoehndorf2015role}
\citation{cui2016biomedical}
\citation{SNOMEDCTRelease}
\citation{he2015comparative,he2016topological,jiang2009auditing,zhu2017spark,cui2017mining,abeysinghe2017quality}
\citation{he2015comparative}
\citation{he2016topological}
\citation{jiang2009auditing}
\citation{zhu2017spark}
\citation{cui2017mining,abeysinghe2017quality}
\citation{zhu2017spark}
\citation{deng2014deep}
\citation{cui2017mining}
\@writefile{toc}{\contentsline {section}{\numberline {I}Introduction}{1}}
\citation{mikolov2013efficient}
\citation{rehurek2010software}
\citation{chollet2015keras}
\citation{greff2017lstm}
\citation{krizhevsky2012imagenet}
\citation{kalchbrenner2014convolutional}
\citation{ciregan2012multi}
\@writefile{toc}{\contentsline {section}{\numberline {II}Method}{2}}
\newlabel{method}{{II}{2}}
\@writefile{toc}{\contentsline {subsection}{\numberline {\unhbox \voidb@x \hbox {II-A}}Word Embedding \& Data Preprocessing}{2}}
\@writefile{toc}{\contentsline {subsection}{\numberline {\unhbox \voidb@x \hbox {II-B}}Neural Networks for Classifying Word Sequences}{2}}
\@writefile{toc}{\contentsline {subsection}{\numberline {\unhbox \voidb@x \hbox {II-C}}Predicting Concept Names Given Bags of Words}{2}}
\citation{forney1973viterbi}
\citation{levenshtein1966binary}
\citation{cui2017mining}
\@writefile{lof}{\contentsline {figure}{\numberline {1}{\ignorespaces Three neural network models used for classification task. (a) is a simple neural network for binary classification; (b) is an LSTM neural network; (c) is the combination of convolutional neural network and LSTM. ``None" means that the dimension is variable.}}{3}}
\newlabel{threeModels}{{1}{3}}
\@writefile{toc}{\contentsline {section}{\numberline {III}Experiment \& Result}{3}}
\newlabel{result}{{III}{3}}
\@writefile{toc}{\contentsline {subsection}{\numberline {\unhbox \voidb@x \hbox {III-A}}Experiment Setup}{3}}
\@writefile{toc}{\contentsline {subsection}{\numberline {\unhbox \voidb@x \hbox {III-B}}Result for Binary Classification}{3}}
\citation{cui2017mining}
\citation{cui2017mining}
\@writefile{lot}{\contentsline {table}{\numberline {I}{\ignorespaces Result of binary classification for Experiment I.}}{4}}
\newlabel{2018halfandhalf}{{I}{4}}
\@writefile{lot}{\contentsline {table}{\numberline {II}{\ignorespaces Result of binary classification for Experiment II.}}{4}}
\newlabel{2017Alland2018New}{{II}{4}}
\@writefile{toc}{\contentsline {subsection}{\numberline {\unhbox \voidb@x \hbox {III-C}}Result for Sequence Prediction}{4}}
\@writefile{lof}{\contentsline {figure}{\numberline {2}{\ignorespaces Number of concept names in terms of the name length for all concepts in the March 2018 US Edition of SNOMED CT.}}{4}}
\newlabel{lengthStatis}{{2}{4}}
\@writefile{toc}{\contentsline {subsection}{\numberline {\unhbox \voidb@x \hbox {III-D}}Potential Factors Affecting the Prediction Performance}{4}}
\@writefile{lot}{\contentsline {table}{\numberline {III}{\ignorespaces Result of LSTM-based sequence prediction in terms of the length of concept names. Training data is from September 2017 US Edition of SNOMED CT and test data is the newly added concepts in the March 2018 Edition.}}{5}}
\newlabel{2017predict2018F1}{{III}{5}}
\@writefile{lot}{\contentsline {table}{\numberline {IV}{\ignorespaces Result of LSTM-based sequence prediction for names of missing concepts identified by Cui et al.'s method in\nobreakspace  {}\cite  {cui2017mining}.}}{5}}
\newlabel{Cui}{{IV}{5}}
\@writefile{toc}{\contentsline {subsection}{\numberline {\unhbox \voidb@x \hbox {III-E}}Analysis of False Positives}{5}}
\@writefile{lot}{\contentsline {table}{\numberline {V}{\ignorespaces Result of LSTM-based sequence prediction in terms of whether concept names contain duplicate words or not.}}{5}}
\newlabel{2017predict2018Duplication}{{V}{5}}
\@writefile{toc}{\contentsline {subsection}{\numberline {\unhbox \voidb@x \hbox {III-F}}Beyond Naming Purpose}{5}}
\citation{cui2017mining}
\bibstyle{IEEEtran}
\bibdata{IEEEexample}
\bibcite{bodenreider2008biomedical}{1}
\bibcite{hoehndorf2015role}{2}
\bibcite{cui2016biomedical}{3}
\bibcite{SNOMEDCTRelease}{4}
\bibcite{he2015comparative}{5}
\bibcite{he2016topological}{6}
\bibcite{jiang2009auditing}{7}
\bibcite{zhu2017spark}{8}
\bibcite{cui2017mining}{9}
\bibcite{abeysinghe2017quality}{10}
\bibcite{deng2014deep}{11}
\bibcite{mikolov2013efficient}{12}
\bibcite{rehurek2010software}{13}
\bibcite{chollet2015keras}{14}
\bibcite{greff2017lstm}{15}
\bibcite{krizhevsky2012imagenet}{16}
\bibcite{kalchbrenner2014convolutional}{17}
\bibcite{ciregan2012multi}{18}
\bibcite{forney1973viterbi}{19}
\bibcite{levenshtein1966binary}{20}
\@writefile{toc}{\contentsline {section}{\numberline {IV}Limitations \& Future Work}{6}}
\newlabel{limitation}{{IV}{6}}
\@writefile{toc}{\contentsline {section}{\numberline {V}Conclusion}{6}}
\newlabel{conclusion}{{V}{6}}
\@writefile{toc}{\contentsline {section}{References}{6}}
