\relax 
\global\@namedef{num@address}{3}
\global\@namedef{num@author}{3}
\citation{bodenreider2008biomedical}
\citation{hoehndorf2015role}
\citation{bodenreider2009desiderata}
\citation{bioportal}
\citation{noy2009bioportal}
\citation{salvadores2013bioportal}
\thanksnewlabel{au1@email}{{fengbo.zheng@uky.edu}{1}}
\thanksnewlabel{au2@email}{{rashmie.abeysinghe@uky.edu}{1}}
\thanksnewlabel{au3@email}{{licong.cui@uth.tmc.edu}{1}}
\thanksnewlabel{au3thanks}{{*}{1}}
\@writefile{toc}{\contentsline {section}{Abstract}{1}}
\citation{cui2016biomedical}
\citation{grau2012completeness}
\citation{sctrelease}
\citation{ncitoverview}
\citation{chandar2015similarity}
\citation{peng2016extending}
\citation{he2015comparative}
\citation{he2016topological}
\citation{cui2017mining}
\citation{jiang2009auditing}
\citation{zhu2017spark}
\citation{zheng2020lexical}
\citation{zheng2020lexical}
\citation{ignatov2014introduction}
\citation{ganter2012formal}
\citation{zweigenbaum1995issues}
\citation{lindberg1993unified}
\citation{bodenreider2004unified}
\citation{martinez2014improving}
\citation{aronson2001effective}
\citation{adamusiak2014next}
\citation{zheng2020transformation}
\citation{yao2019clinical}
\citation{umlsreferencemaual}
\citation{PubMedtutorial}
\citation{luinorm}
\citation{zheng2020lexical}
\citation{troy2007faster}
\citation{pubmed_release}
\citation{lucene}
\citation{doniec2003endoscopic}
\citation{gu2003intraoral}
\citation{zheng2020lexical}
\citation{chandar2015similarity}
\citation{peng2016extending}
\citation{he2015comparative}
\citation{he2016topological}
\citation{cui2017mining}
\citation{jiang2009auditing}
\citation{zhu2017spark}
\citation{zheng2020transformation}
\citation{abeysinghe2020ssif}
\bibstyle{vancouver}
\bibdata{bmc_article}
\bibcite{bodenreider2008biomedical}{1}
\bibcite{hoehndorf2015role}{2}
\bibcite{bodenreider2009desiderata}{3}
\bibcite{bioportal}{4}
\bibcite{noy2009bioportal}{5}
\bibcite{salvadores2013bioportal}{6}
\bibcite{cui2016biomedical}{7}
\bibcite{grau2012completeness}{8}
\bibcite{sctrelease}{9}
\bibcite{ncitoverview}{10}
\bibcite{chandar2015similarity}{11}
\bibcite{peng2016extending}{12}
\bibcite{he2015comparative}{13}
\bibcite{he2016topological}{14}
\bibcite{cui2017mining}{15}
\bibcite{jiang2009auditing}{16}
\bibcite{zhu2017spark}{17}
\bibcite{zheng2020lexical}{18}
\bibcite{ignatov2014introduction}{19}
\bibcite{ganter2012formal}{20}
\bibcite{zweigenbaum1995issues}{21}
\bibcite{lindberg1993unified}{22}
\bibcite{bodenreider2004unified}{23}
\bibcite{martinez2014improving}{24}
\bibcite{aronson2001effective}{25}
\bibcite{adamusiak2014next}{26}
\bibcite{zheng2020transformation}{27}
\bibcite{yao2019clinical}{28}
\bibcite{umlsreferencemaual}{29}
\bibcite{PubMedtutorial}{30}
\bibcite{luinorm}{31}
\thanksnewlabel{aff1thanks}{{1}{13}}
\thanksnewlabel{aff2thanks}{{2}{13}}
\thanksnewlabel{aff3thanks}{{3}{13}}
\bibcite{troy2007faster}{32}
\bibcite{pubmed_release}{33}
\bibcite{lucene}{34}
\bibcite{doniec2003endoscopic}{35}
\bibcite{gu2003intraoral}{36}
\bibcite{abeysinghe2020ssif}{37}
\@writefile{lof}{\contentsline {figure}{\numberline {1}{\ignorespaces {\mathversion  {bold}\bfseries  An example of detecting potentially missing concepts in Neoplasm sub-hierarchy in the NCI Thesaurus, showing the pipeline of our sequence-based FCA approach}. The longest common substring ``Dendritic Cell'' generated from Concept ``\textit  {Follicular Dendritic Cell Sarcoma}'' and ``\textit  {Histiocytic and Dendritic Cell Neoplasm}'' does not have any existing supertype and thus considered as ``outside the given hierarchy.'' A qualified missing concept ``Dendritic Cell Sarcoma'' derived from concept ``\textit  {Follicular Dendritic Cell Sarcoma}'' and ``\textit  {Interdigitating Dendritic Cell Sarcoma}'' appears in the Consumer Health Vocabulary (CHV) in the UMLS.}}{14}}
\newlabel{FCAPipe}{{1}{14}}
\@writefile{lof}{\contentsline {figure}{\numberline {2}{\ignorespaces {\mathversion  {bold}\bfseries  An example of suggesting positions where potentially missing concepts could be added}.}}{14}}
\newlabel{PositioningExample}{{2}{14}}
\@writefile{lof}{\contentsline {figure}{\numberline {3}{\ignorespaces {\mathversion  {bold}\bfseries  Pseudocode of identifying potentially missing concepts and pinpointing where they may be inserted}. Function \textit  {FormalizingNewConcepts} shows the multistage intersection and function \textit  {PinPointLocation} presents how we compute potential subtype(s) and supertype(s) for potentially missing concepts.}}{14}}
\newlabel{AlgorithmPseudocode}{{3}{14}}
\@writefile{lof}{\contentsline {figure}{\numberline {4}{\ignorespaces {\mathversion  {bold}\bfseries  An example hierarchy generated by concept ``\textit  {Palate Neoplasm}'' (C4402) and some of its subtypes}. New concept ``hard palate neoplasm'' could be derived by intersecting concept ``\textit  {Malignant Hard Palate Neoplasm}'' (C3528) and ``\textit  {Benign Hard Palate Neoplasm}'' (C4403), which has a potential supertype ``\textit  {Palate Neoplasm}'' (C4402).}}{14}}
\newlabel{HierarchyTradition}{{4}{14}}
\citation{zheng2020lexical}
\@writefile{lot}{\contentsline {table}{\numberline {1}{\ignorespaces The numbers of existing concepts, qualified newly generated concepts, potentially missing concepts, and missing concepts validated via UMLS, concept position supporting evidence found and missing concepts validated via PubMed for each sub-hierarchy under ``\textit  {Disease or Disorder}'' in the NCI Thesaurus.}}{15}}
\newlabel{ncitstatis}{{1}{15}}
\@writefile{lot}{\contentsline {table}{\numberline {2}{\ignorespaces The numbers of existing concepts, qualified newly generated concepts, potentially missing concepts, and missing concepts validated via UMLS, concept position supporting evidence found and missing concepts validated via PubMed for 5 sub-hierarchy under ``\textit  {Clinical Finding}'' and ``Procedure'' in the SNOMED CT.}}{16}}
\newlabel{snomedstatis}{{2}{16}}
\@writefile{lot}{\contentsline {table}{\numberline {3}{\ignorespaces Ten examples of missing concepts that appear in the external terminologies in the UMLS.}}{16}}
\newlabel{matchexample}{{3}{16}}
\@writefile{lot}{\contentsline {table}{\numberline {4}{\ignorespaces Five examples of missing concepts that appear in the abstracts of biomedical literature in MDELINE/PubMed.}}{17}}
\newlabel{pubmedexample}{{4}{17}}
\@writefile{lot}{\contentsline {table}{\numberline {5}{\ignorespaces The performance of our sequence-based FCA approach with and without concept positioning enhancement. (NCIt: NCI Thesaurus)}}{17}}
\newlabel{supertypeeffectiveness}{{5}{17}}
\@writefile{lot}{\contentsline {table}{\numberline {6}{\ignorespaces The precision of our previous approach introduced in\nobreakspace  {}\cite  {zheng2020lexical} regarding ``outside the given hierarchy'' issue. (NCIt: NCI Thesaurus)}}{18}}
\newlabel{previouswork}{{6}{18}}
\newlabel{LastPage}{{}{18}}
\xdef\lastpage@lastpage{18}
\gdef\lastpage@lastpageHy{}
