Potential Subtype(s),Potential Supertype(s),# of Potential Subtype(s),# of Potential Supertype(s),Supporting Path,Semantic Type(s) of Potential Subtype(s),Semantic Type(s) of Mapped CUI,Mapped Atoms,Newly Formalized Concepts
C123265: X-linked Hypophosphatemic Rickets	C85865: X-Linked Inherited Disorder	C3822: X-Linked Agammaglobulinemia	C4682: X-Linked Severe Combined Immunodeficiency	C154315: X-linked Chronic Granulomatous Disease	C158531: X-Linked Hyper-IgM Syndrome,,6,0,,Disease or Syndrome,Genetic Function,"['(A1121926, RCD)--C0241764: X-linked', '(A12009615, OMIM)--C0241764: X-linked', '(A24682061, HPO)--C0241764: X-linked', '(A29387501, LNC)--C0241764: X-linked', '(A3220201, SNOMEDCT_US)--C0241764: X-linked', '(A0471981, DXP)--C0241764: X-LINKED']",link x
C3034: Fanconi Syndrome	C62505: Fanconi Anemia,,2,0,,Disease or Syndrome,Disease or Syndrome,"['(A4388849, ICPC2ICD10ENG)--C0015624: Fanconi']",fanconi
C123212: Primary Hyperoxaluria Type I	C154314: Autosomal Recessive Cytochrome B-Positive Chronic Granulomatous Disease Type I,,2,0,,Disease or Syndrome,Classification,"['(A1109141, RCD)--C0441729: Type I', '(A27144937, LNC)--C0441729: Type I', '(A3214100, SNOMEDCT_US)--C0441729: Type I', '(A18657590, CHV)--C0441729: type i']",type,i
C27871: Congenital Combined Immunodeficiency,,1,0,,Disease or Syndrome,Disease or Syndrome,"['(A1591831, MDR)--C0494261: Combined immunodeficiency', '(A25684218, MDR)--C0494261: Combined immunodeficiency', '(A24675872, HPO)--C0494261: Combined immunodeficiency', '(A18565386, CHV)--C0494261: combined immunodeficiency', '(A21016863, MEDCIN)--C0494261: combined immunodeficiency', '(A4397962, ICPC2ICD10ENG)--C0494261: combined; immunodeficiency', '(A0901302, ICD10)--C0494261: Combined immunodeficiencies', '(A0901303, ICD10AM)--C0494261: Combined immunodeficiencies', '(A30950276, ICD10CM)--C0494261: Combined immunodeficiencies', '(A17863393, ICD10CM)--C0494261: Combined immunodeficiencies']",combine,immunodeficiency
