\relax 
\global\@namedef{num@address}{4}
\global\@namedef{num@author}{6}
\citation{ncitsource}
\citation{hartel2005modeling}
\citation{de2004nci}
\citation{sioutos2007nci}
\citation{fragoso2004overview}
\citation{haendel2018census}
\thanksnewlabel{au1@email}{{fengbo.zheng@uky.edu}{1}}
\thanksnewlabel{au2@email}{{rashmie.abeysinghe@uky.edu}{1}}
\thanksnewlabel{au3@email}{{nsioutos@mail.nih.gov}{1}}
\thanksnewlabel{au4@email}{{whitemanl@mail.nih.gov}{1}}
\thanksnewlabel{au5@email}{{lyubov.remennik@nih.gov}{1}}
\thanksnewlabel{au6@email}{{licong.cui@uth.tmc.edu}{1}}
\thanksnewlabel{au6thanks}{{*}{1}}
\@writefile{toc}{\contentsline {section}{Abstract}{1}}
\citation{zheng2019hybrid}
\citation{ochs2015tribal}
\citation{chen2009structural}
\citation{bodenreider2016identifying}
\citation{quesada2016suggesting}
\citation{abeysinghe2018lexical}
\citation{liu2018can}
\citation{zhang2010large}
\citation{zhang2014maple}
\citation{cui2016biomedical}
\citation{cui2017mining}
\citation{cui2018auditing}
\citation{abeysinghe2017quality}
\citation{abeysinghe2019leveraging}
\citation{cui2017mining}
\citation{cui2018auditing}
\citation{abeysinghe2017quality}
\citation{abeysinghe2019leveraging}
\citation{sun2019validating}
\citation{bodenreider2016identifying}
\citation{liu2018can}
\citation{cui2017mining}
\citation{cui2018auditing}
\citation{abeysinghe2017quality}
\citation{abeysinghe2019leveraging}
\citation{sun2019validating}
\citation{zheng2018exploring}
\citation{cui2016biomedical}
\citation{cui2017mining}
\citation{cui2018auditing}
\citation{abeysinghe2017quality}
\citation{zhang2010large}
\citation{cui2017mining}
\citation{zhang2018efficient}
\citation{spacynlp}
\citation{zheng2019hybrid}
\citation{abeysinghe2019leveraging}
\citation{ncitdownloads}
\citation{ochs2015tribal}
\citation{ochs2015scalable}
\citation{ochs2016utilizing}
\citation{quesada2016suggesting}
\citation{bodenreider2016identifying}
\citation{cui2017mining}
\citation{cui2018auditing}
\citation{abeysinghe2017quality}
\citation{abeysinghe2019leveraging}
\citation{liu2018can}
\citation{sun2019validating}
\citation{liu2018can}
\citation{liu2018can}
\citation{sun2019validating}
\citation{doi:10.1200/CCI.19.00124}
\citation{doi:10.1200/CCI.19.00124}
\citation{doi:10.1200/CCI.19.00124}
\citation{doi:10.1200/CCI.19.00124}
\citation{liu2018can}
\citation{sun2019validating}
\bibstyle{vancouver}
\bibdata{bmc_article}
\bibcite{ncitsource}{1}
\bibcite{hartel2005modeling}{2}
\bibcite{de2004nci}{3}
\bibcite{sioutos2007nci}{4}
\bibcite{fragoso2004overview}{5}
\bibcite{haendel2018census}{6}
\bibcite{zheng2019hybrid}{7}
\bibcite{ochs2015tribal}{8}
\bibcite{chen2009structural}{9}
\bibcite{bodenreider2016identifying}{10}
\bibcite{quesada2016suggesting}{11}
\bibcite{abeysinghe2018lexical}{12}
\bibcite{liu2018can}{13}
\bibcite{zhang2010large}{14}
\bibcite{zhang2014maple}{15}
\bibcite{cui2016biomedical}{16}
\bibcite{cui2017mining}{17}
\bibcite{cui2018auditing}{18}
\bibcite{abeysinghe2017quality}{19}
\bibcite{abeysinghe2019leveraging}{20}
\bibcite{sun2019validating}{21}
\bibcite{zheng2018exploring}{22}
\bibcite{zhang2018efficient}{23}
\bibcite{spacynlp}{24}
\bibcite{ncitdownloads}{25}
\bibcite{ochs2015scalable}{26}
\thanksnewlabel{aff1thanks}{{1}{13}}
\thanksnewlabel{aff2thanks}{{2}{13}}
\thanksnewlabel{aff3thanks}{{3}{13}}
\thanksnewlabel{aff4thanks}{{4}{13}}
\bibcite{ochs2016utilizing}{27}
\bibcite{doi:10.1200/CCI.19.00124}{28}
\@writefile{lof}{\contentsline {figure}{\numberline {1}{\ignorespaces {\mathversion  {bold}\bfseries  An example of non-lattice subgraphs in 19.08d version of NCI Thesaurus}. Concepts are connected by IS-A relations. The red dotted line shows a potential missing IS-A relation between concepts ``\textit  {Cutaneous Pseudolymphoma}'' and ``\textit  {Non-Neoplastic Skin Disorder}'' identified by our method.}}{14}}
\newlabel{nlsExample}{{1}{14}}
\@writefile{lof}{\contentsline {figure}{\numberline {2}{\ignorespaces {\mathversion  {bold}\bfseries  Semantic model of concepts ``\textit  {Cutaneous Pseudolymphoma (C62776)}'' and ``\textit  {Non-Neoplastic Skin Disorder (C27555)}'' which are contained in non-lattice subgraph shown in Figure1\hbox {}}.}}{14}}
\newlabel{model}{{2}{14}}
\@writefile{lot}{\contentsline {table}{\numberline {1}{\ignorespaces The role definitions of concept ``\textit  {Sarcoma}'' (C9118) in NCI Thesaurus.}}{14}}
\newlabel{roleDefExample}{{1}{14}}
\@writefile{lot}{\contentsline {table}{\numberline {2}{\ignorespaces The number of potentially missing IS-A relations identified for sub-hierarchies.}}{14}}
\newlabel{statisInfo}{{2}{14}}
\@writefile{lot}{\contentsline {table}{\numberline {3}{\ignorespaces Ten examples of valid missing IS-A relations confirmed by EVS experts.}}{15}}
\newlabel{truePositive10}{{3}{15}}
\newlabel{LastPage}{{}{15}}
\xdef\lastpage@lastpage{15}
\gdef\lastpage@lastpageHy{}
