\relax 
\citation{bodenreider2008biomedical,cui2014semantic,hoehndorf2015role,gene2018gene}
\citation{de2004nci,fragoso2004overview,sioutos2007nci}
\citation{haendel2018census}
\citation{cui2016biomedical}
\citation{lambrix2015completing}
\citation{abeysinghe2017quality}
\citation{cui2017mining,cui2018auditing}
\citation{zhang2017can}
\providecommand \oddpage@label [2]{}
\@writefile{toc}{\contentsline {section}{\numberline {I}Introduction}{1}}
\citation{chen2009structural}
\citation{bodenreider2016identifying}
\citation{ochs2014tribal,ochs2015scalable}
\citation{liu2018can}
\citation{abeysinghe2017quality,abeysinghe2019leveraging}
\citation{cui2017mining,cui2018auditing}
\citation{sun2019validating}
\citation{zhang2010large}
\citation{cui2017mining}
\citation{de2004nci,fragoso2004overview}
\citation{zhang2018efficient}
\@writefile{toc}{\contentsline {section}{\numberline {II}Background}{2}}
\newlabel{background}{{II}{2}}
\@writefile{toc}{\contentsline {subsection}{\numberline {\unhbox \voidb@x \hbox {II-A}}Existing Work on Identifying Missing {\em  IS-A} relations}{2}}
\@writefile{toc}{\contentsline {subsection}{\numberline {\unhbox \voidb@x \hbox {II-B}}Non-Lattice Subgraph}{2}}
\@writefile{lof}{\contentsline {figure}{\numberline {1}{\ignorespaces An example of non-lattice subgraphs in the 19.01d version of NCIt.}}{2}}
\newlabel{nlsExample}{{1}{2}}
\@writefile{toc}{\contentsline {subsection}{\numberline {\unhbox \voidb@x \hbox {II-C}}NCI Thesaurus}{2}}
\@writefile{lot}{\contentsline {table}{\numberline {I}{\ignorespaces The role definitions of concept \textit  {``Skin Neoplasm (C3372)."}}}{2}}
\newlabel{skinNeoplasmDLExample}{{I}{2}}
\@writefile{toc}{\contentsline {section}{\numberline {III}Method}{2}}
\newlabel{method}{{III}{2}}
\@writefile{lof}{\contentsline {figure}{\numberline {2}{\ignorespaces Hybrid modeling of concepts \textit  {``Pseudogout (C34955)''} and \textit  {``Metabolic Bone Disorder (C97045)''} which are contained in the non-lattice subgraph shown in Fig.\nobreakspace  {}1\hbox {}.}}{3}}
\newlabel{semanticModel}{{2}{3}}
\@writefile{toc}{\contentsline {subsection}{\numberline {\unhbox \voidb@x \hbox {III-A}}Hybrid Modeling of Concepts}{3}}
\@writefile{toc}{\contentsline {subsection}{\numberline {\unhbox \voidb@x \hbox {III-B}}Detection of Potentially Missing IS-A Relations}{3}}
\@writefile{toc}{\contentsline {subsubsection}{\numberline {\unhbox \voidb@x \hbox {III-B}1}Role-based testing}{3}}
\@writefile{toc}{\contentsline {subsubsection}{\numberline {\unhbox \voidb@x \hbox {III-B}2}Lexical-feature-based testing}{3}}
\citation{NCItBrowser}
\citation{zhang2017can}
\@writefile{toc}{\contentsline {section}{\numberline {IV}Result}{4}}
\newlabel{result}{{IV}{4}}
\@writefile{toc}{\contentsline {subsection}{\numberline {\unhbox \voidb@x \hbox {IV-A}}Non-lattice Subgraphs and Suggested IS-A Relations }{4}}
\@writefile{lot}{\contentsline {table}{\numberline {II}{\ignorespaces The number of non-lattice subgraphs in each sub-hierarchy of NCIt (19.01d version).}}{4}}
\newlabel{statisOfNLS}{{II}{4}}
\@writefile{lot}{\contentsline {table}{\numberline {III}{\ignorespaces The number of potentially missing {\em  IS-A} relations suggested in each sub-hierarchy (19.01d version).}}{4}}
\newlabel{statisOfMissingIS-A}{{III}{4}}
\@writefile{toc}{\contentsline {subsection}{\numberline {\unhbox \voidb@x \hbox {IV-B}}Retrospective Ground Truth Based Evaluation}{4}}
\citation{abeysinghe2017quality}
\citation{abeysinghe2019leveraging}
\@writefile{lot}{\contentsline {table}{\numberline {IV}{\ignorespaces The number of newly added {\em  IS-A} relations in each sub-hierarchy of the 19.07e version of NCIt which are contained in the non-lattice subgraphs of the 19.01d version of NCIt.}}{5}}
\newlabel{statisOfNewlyAddIS-A}{{IV}{5}}
\@writefile{toc}{\contentsline {section}{\numberline {V}Discussion}{5}}
\@writefile{lot}{\contentsline {table}{\numberline {V}{\ignorespaces Ten examples of suggested missing {\em  IS-A} relations confirmed by the 19.07e version of NCIt.}}{5}}
\newlabel{truePositives}{{V}{5}}
\@writefile{toc}{\contentsline {subsection}{\numberline {\unhbox \voidb@x \hbox {V-A}}Distinction with Previous Work}{5}}
\@writefile{toc}{\contentsline {subsection}{\numberline {\unhbox \voidb@x \hbox {V-B}}Limitations and Future Work}{5}}
\citation{liu2018can,liu2018using,sun2019validating}
\bibstyle{IEEEtran}
\bibdata{IEEEexample}
\bibcite{bodenreider2008biomedical}{1}
\bibcite{cui2014semantic}{2}
\bibcite{hoehndorf2015role}{3}
\bibcite{gene2018gene}{4}
\bibcite{de2004nci}{5}
\bibcite{fragoso2004overview}{6}
\bibcite{sioutos2007nci}{7}
\bibcite{haendel2018census}{8}
\bibcite{cui2016biomedical}{9}
\bibcite{lambrix2015completing}{10}
\bibcite{abeysinghe2017quality}{11}
\bibcite{cui2017mining}{12}
\bibcite{cui2018auditing}{13}
\bibcite{zhang2017can}{14}
\bibcite{chen2009structural}{15}
\bibcite{bodenreider2016identifying}{16}
\bibcite{ochs2014tribal}{17}
\bibcite{ochs2015scalable}{18}
\bibcite{liu2018can}{19}
\bibcite{abeysinghe2019leveraging}{20}
\bibcite{sun2019validating}{21}
\bibcite{zhang2010large}{22}
\bibcite{zhang2018efficient}{23}
\bibcite{NCItBrowser}{24}
\bibcite{liu2018using}{25}
\@writefile{toc}{\contentsline {section}{\numberline {VI}Conclusion}{6}}
\newlabel{conclusion}{{VI}{6}}
\@writefile{toc}{\contentsline {section}{References}{6}}
