\relax 
\citation{bodenreider2008biomedical}
\citation{de2004nci,fragoso2004overview,sioutos2007nci}
\citation{haendel2018census}
\citation{cui2016biomedical}
\citation{NCItOverview}
\citation{chandar2015similarity}
\citation{peng2016extending}
\citation{he2015comparative}
\citation{he2016topological}
\citation{jiang2009auditing}
\citation{wei2017spark}
\citation{cui2017mining}
\citation{zheng2018exploring}
\citation{ignatov2014introduction}
\providecommand \oddpage@label [2]{}
\@writefile{toc}{\contentsline {section}{\numberline {I}Introduction}{1}}
\citation{ganter2012formal}
\citation{luinorm}
\citation{troy2007faster}
\@writefile{toc}{\contentsline {section}{\numberline {II}Background}{2}}
\newlabel{background}{{II}{2}}
\@writefile{toc}{\contentsline {section}{\numberline {III}Method}{2}}
\newlabel{method}{{III}{2}}
\@writefile{toc}{\contentsline {subsection}{\numberline {\unhbox \voidb@x \hbox {III-A}}Constructing Formal Context}{2}}
\@writefile{toc}{\contentsline {subsection}{\numberline {\unhbox \voidb@x \hbox {III-B}}Identifying Potentially Missing Concepts}{2}}
\@writefile{lof}{\contentsline {figure}{\numberline {1}{\ignorespaces Pseudocode of identifying potentially missing concepts by multistage intersection.}}{2}}
\newlabel{pseudocode}{{1}{2}}
\@writefile{toc}{\contentsline {subsection}{\numberline {\unhbox \voidb@x \hbox {III-C}}Illustrative Example}{2}}
\citation{bodenreider2004unified}
\@writefile{lof}{\contentsline {figure}{\numberline {2}{\ignorespaces An example of FCA formal context generated by the concept \textit  {Breast Fibroepithelial Neoplasm} (C40405) in the NCI Thesaurus and its descendants in company with their lexical features. Word ``Tumor'' is normalized to ``neoplasm'' and word ``Phyllodes'' is normalized to ``phyllode''. An FCA formal concept (marked by blue cells) with FCA attribute set \{breast, neoplasm\} is considered as a potentially missing concept among the given concepts.}}{3}}
\newlabel{formalcontext}{{2}{3}}
\@writefile{toc}{\contentsline {section}{\numberline {IV}Results}{3}}
\newlabel{result}{{IV}{3}}
\@writefile{toc}{\contentsline {subsection}{\numberline {\unhbox \voidb@x \hbox {IV-A}}Summary Result}{3}}
\@writefile{toc}{\contentsline {subsection}{\numberline {\unhbox \voidb@x \hbox {IV-B}}Preliminary Evaluation}{3}}
\@writefile{lot}{\contentsline {table}{\numberline {I}{\ignorespaces The numbers of existing concepts, newly generated concepts, potentially missing concepts, and missing concepts validated via UMLS for each sub-hierarchy of \textit  {Disease or Disorder} (C2991).}}{3}}
\newlabel{statisInfo}{{I}{3}}
\@writefile{toc}{\contentsline {section}{\numberline {V}Discussion}{3}}
\citation{zheng2018exploring}
\bibstyle{IEEEtran}
\bibdata{IEEEexample}
\bibcite{bodenreider2008biomedical}{1}
\bibcite{de2004nci}{2}
\bibcite{fragoso2004overview}{3}
\bibcite{sioutos2007nci}{4}
\bibcite{haendel2018census}{5}
\bibcite{cui2016biomedical}{6}
\bibcite{NCItOverview}{7}
\bibcite{chandar2015similarity}{8}
\bibcite{peng2016extending}{9}
\bibcite{he2015comparative}{10}
\bibcite{he2016topological}{11}
\bibcite{jiang2009auditing}{12}
\bibcite{wei2017spark}{13}
\bibcite{cui2017mining}{14}
\bibcite{zheng2018exploring}{15}
\bibcite{ignatov2014introduction}{16}
\bibcite{ganter2012formal}{17}
\bibcite{luinorm}{18}
\bibcite{troy2007faster}{19}
\bibcite{bodenreider2004unified}{20}
\@writefile{lot}{\contentsline {table}{\numberline {II}{\ignorespaces Ten examples of validated missing concepts and their matched concepts in the UMLS terminologies.}}{4}}
\newlabel{validationExample}{{II}{4}}
\@writefile{toc}{\contentsline {section}{\numberline {VI}Conclusion}{4}}
\newlabel{conclusion}{{VI}{4}}
\@writefile{toc}{\contentsline {section}{References}{4}}
