This is BibTeX, Version 0.99d (TeX Live 2015)
Capacity: max_strings=35307, hash_size=35307, hash_prime=30011
The top-level auxiliary file: v5.aux
The style file: IEEEtran.bst
Reallocated singl_function (elt_size=4) to 100 items from 50.
Reallocated singl_function (elt_size=4) to 100 items from 50.
Reallocated singl_function (elt_size=4) to 100 items from 50.
Reallocated wiz_functions (elt_size=4) to 6000 items from 3000.
Reallocated singl_function (elt_size=4) to 100 items from 50.
Database file #1: IEEEexample.bib
Repeated entry---line 333 of file IEEEexample.bib
 : @article{cui2017mining
 :                       ,
I'm skipping whatever remains of this entry
-- IEEEtran.bst version 1.12 (2007/01/11) by Michael Shell.
-- http://www.michaelshell.org/tex/ieeetran/bibtex/
-- See the "IEEEtran_bst_HOWTO.pdf" manual for usage information.

Done.
You've used 20 entries,
            4024 wiz_defined-function locations,
            927 strings with 11183 characters,
and the built_in function-call counts, 15488 in all, are:
= -- 1256
> -- 368
< -- 129
+ -- 198
- -- 65
* -- 743
:= -- 2296
add.period$ -- 46
call.type$ -- 20
change.case$ -- 21
chr.to.int$ -- 276
cite$ -- 20
duplicate$ -- 1132
empty$ -- 1260
format.name$ -- 80
if$ -- 3589
int.to.chr$ -- 0
int.to.str$ -- 20
missing$ -- 202
newline$ -- 83
num.names$ -- 18
pop$ -- 465
preamble$ -- 1
purify$ -- 0
quote$ -- 2
skip$ -- 1210
stack$ -- 0
substring$ -- 693
swap$ -- 924
text.length$ -- 37
text.prefix$ -- 0
top$ -- 5
type$ -- 20
warning$ -- 0
while$ -- 71
width$ -- 22
write$ -- 216
(There was 1 error message)
